moch_exam
…
tibble [35,147 × 8] (S3: tbl_df/tbl/data.frame)
 $ country    : chr [1:35147] "United Kingdom" "United Kingdom" "United Kingdom" "United Kingdom" ...
 $ year       : num [1:35147] 2025 2025 2025 2025 2025 ...
 $ month      : num [1:35147] 1 1 1 1 1 1 1 1 1 1 ...
 $ days       : num [1:35147] 4 4 4 4 4 4 4 4 4 4 ...
 $ invoice_no : chr [1:35147] "539993" "539993" "539993" "539993" ...
 $ customer_id: num [1:35147] 13313 13313 13313 13313 13313 ...
 $ quantity   : chr [1:35147] "10" "25" "25" "5" ...
 $ unit_price : num [1:35147] 1.95 0.42 0.42 2.1 1.25 1.95 3.25 1.45 2.95 1.95 ...

df |> 
  mutate(quantity = parse_number(quantity))

# A tibble: 35,147 × 8
   country         year month  days invoice_no customer_id quantity unit_price
   <chr>          <dbl> <dbl> <dbl> <chr>            <dbl>    <dbl>      <dbl>
 1 United Kingdom  2025     1     4 539993           13313       10       1.95
 2 United Kingdom  2025     1     4 539993           13313       25       0.42
 3 United Kingdom  2025     1     4 539993           13313       25       0.42
 4 United Kingdom  2025     1     4 539993           13313        5       2.1 
 5 United Kingdom  2025     1     4 539993           13313       10       1.25
 6 United Kingdom  2025     1     4 539993           13313       10       1.95
 7 United Kingdom  2025     1     4 539993           13313        6       3.25
 8 United Kingdom  2025     1     4 539993           13313       12       1.45
 9 United Kingdom  2025     1     4 539993           13313        6       2.95
10 United Kingdom  2025     1     4 539993           13313        8       1.95
# ℹ 35,137 more rows
…
Question 2

Compute the revenue stream for each item (row) using unit_price ∗ quantity.Then aggregate the revenues by country and sort them in descending order by gross revenue.

df_country <-
df |> 
  mutate(quantity = parse_number(quantity),
          revenue = unit_price *quantity) |> 
  group_by(country) |> 
  summarize(total_sales = sum(revenue)) |> 
  arrange(desc(total_sales))

df_country

# A tibble: 24 × 2
   country        total_sales
   <chr>                <dbl>
 1 United Kingdom     434308.
 2 Netherlands         26611.
 3 EIRE                21657.
 4 France              17503.
 5 Germany             16451.
 6 Australia            9018.
 7 Spain                7179.
 8 Switzerland          4231.
 9 Portugal             3998.
10 Sweden               3446.
# ℹ 14 more rows
…
Question 8

It seems unusual that the highest invoice revenue exceeds the revenue from our top customer.

Why does this seem odd? Filter the data for:

the invoices of the customer who generated the highest overall revenue

df |> 
  filter(customer_id == 14646) 

# A tibble: 220 × 9
   country      year month  days invoice_no customer_id quantity unit_price
   <chr>       <dbl> <dbl> <dbl> <chr>            <dbl> <chr>         <dbl>
 1 Netherlands  2025     1    14 541206           14646 48             0.29
 2 Netherlands  2025     1    14 541206           14646 32             8.5 
 3 Netherlands  2025     1    14 541206           14646 24             4.25
 4 Netherlands  2025     1    14 541206           14646 32             4.25
 5 Netherlands  2025     1    14 541206           14646 20             0.85
 6 Netherlands  2025     1    14 541206           14646 96             1.45
 7 Netherlands  2025     1    14 541206           14646 96             1.45
 8 Netherlands  2025     1    14 541206           14646 72             3.39
 9 Netherlands  2025     1    14 541206           14646 64             3.75
10 Netherlands  2025     1    14 541206           14646 96             1.65
   revenue
     <dbl>
 1    13.9
 2   272  
 3   102  
 4   136  
 5    17  
 6   139. 
 7   139. 
 8   244. 
 9   240  
10   158. 
# ℹ 210 more rows
…
